[
  {
    "name": "Ada",
    "email": "ada@gmail.com",
    "jobTitle": "Enginer",
    "phone": "771709810",
    "imageUrl": "https://www.google.com/search?q=avatar+image&safe=active&rlz=1C1CHBD_frSN887SN887&sxsrf=ALeKk02TA-736jrKZrheJSfhXsvDljjxfw:1612701028675&source=lnms&tbm=isch&sa=X&ved=2ahUKEwjglcW_49fuAhUC4BoKHdZbBgcQ_AUoAXoECBIQAw&biw=1920&bih=937#imgrc=gHP5dJmEeWmY6M&imgdii=kbaP9vQo66UAzM"
  },
  {
    "name": "Aicha",
    "email": "aicha@gmail.com",
    "jobTitle": "Docter",
    "phone": "771709811",
    "imageUrl": "https://encrypted-tbn0.gstatic.com/images?q=tbn:ANd9GcRtTJqIPiFShSeQ5174-wfNRY-8pCXs2GTJvw&usqp=CAU"
  },
  {
    "name": "Boubacar",
    "email": "boubacar@gmail.com",
    "jobTitle": "Enginer",
    "phone": "771709811",
    "imageUrl": "https://previews.123rf.com/images/inegvin/inegvin1701/inegvin170100077/69882112-ic%C3%B4ne-du-signe-de-l-utilisateur-symbole-de-personne-avatar-humain-.jpg"
  },
  {
    "name": "Thierno",
    "email": "thierno@gmail.com",
    "jobTitle": "Markter",
    "phone": "771709809",
    "imageUrl": "https://previews.123rf.com/images/yupiramos/yupiramos1610/yupiramos161007352/64369849-jeune-homme-avatar-ic%C3%B4ne-isol%C3%A9-illustration-vectorielle-conception.jpg"
  },
  {
    "name": "Matar",
    "email": "matar@gmail.com",
    "jobTitle": "Enginer",
    "phone": "771709147",
    "imageUrl": "https://previews.123rf.com/images/jemastock/jemastock1703/jemastock170304754/73722296-visage-de-beau-barbu-peau-d-olive-jeune-homme-ic%C3%B4ne-image-vector-illustration-design.jpg"
  }
]
