{
  "name": "Matar",
  "email": "matar@gmail.com",
  "jobTitle": "Enginer",
  "phone": "771709147",
  "imageUrl": "https://previews.123rf.com/images/jemastock/jemastock1703/jemastock170304754/73722296-visage-de-beau-barbu-peau-d-olive-jeune-homme-ic%C3%B4ne-image-vector-illustration-design.jpg"
}
